2021-12-17 08:09:29 [192.168.146.32][13][-][error][i18n] @MISSING: backend.ID FOR LANGUAGE vi @
    in /u01/khonoidungos/apps/cms_movitel/common/helpers/TranslationEventHandler.php:17
    in /u01/khonoidungos/apps/cms_movitel/common/models/db/CsmMediaDB.php:111
    in /u01/khonoidungos/apps/cms_movitel/backend/models/CsmMediaCustomClipApproveSearch.php:86
2021-12-17 08:09:29 [192.168.146.32][13][-][error][i18n] @MISSING: backend.Slug FOR LANGUAGE vi @
    in /u01/khonoidungos/apps/cms_movitel/common/helpers/TranslationEventHandler.php:17
    in /u01/khonoidungos/apps/cms_movitel/common/models/db/CsmMediaDB.php:113
    in /u01/khonoidungos/apps/cms_movitel/backend/models/CsmMediaCustomClipApproveSearch.php:86
2021-12-17 08:09:29 [192.168.146.32][13][-][error][i18n] @MISSING: backend.Max Quantity FOR LANGUAGE vi @
    in /u01/khonoidungos/apps/cms_movitel/common/helpers/TranslationEventHandler.php:17
    in /u01/khonoidungos/apps/cms_movitel/common/models/db/CsmMediaDB.php:120
    in /u01/khonoidungos/apps/cms_movitel/backend/models/CsmMediaCustomClipApproveSearch.php:86
2021-12-17 08:09:29 [192.168.146.32][13][-][error][i18n] @MISSING: backend.Original Path FOR LANGUAGE vi @
    in /u01/khonoidungos/apps/cms_movitel/common/helpers/TranslationEventHandler.php:17
    in /u01/khonoidungos/apps/cms_movitel/common/models/db/CsmMediaDB.php:130
    in /u01/khonoidungos/apps/cms_movitel/backend/models/CsmMediaCustomClipApproveSearch.php:86
2021-12-17 08:09:29 [192.168.146.32][13][-][error][i18n] @MISSING: backend.Convert Status FOR LANGUAGE vi @
    in /u01/khonoidungos/apps/cms_movitel/common/helpers/TranslationEventHandler.php:17
    in /u01/khonoidungos/apps/cms_movitel/common/models/db/CsmMediaDB.php:134
    in /u01/khonoidungos/apps/cms_movitel/backend/models/CsmMediaCustomClipApproveSearch.php:86
2021-12-17 08:09:29 [192.168.146.32][13][-][error][i18n] @MISSING: backend.Convert Path FOR LANGUAGE vi @
    in /u01/khonoidungos/apps/cms_movitel/common/helpers/TranslationEventHandler.php:17
    in /u01/khonoidungos/apps/cms_movitel/common/models/db/CsmMediaDB.php:135
    in /u01/khonoidungos/apps/cms_movitel/backend/models/CsmMediaCustomClipApproveSearch.php:86
2021-12-17 08:09:29 [192.168.146.32][13][-][error][i18n] @MISSING: backend.Convert Start Time FOR LANGUAGE vi @
    in /u01/khonoidungos/apps/cms_movitel/common/helpers/TranslationEventHandler.php:17
    in /u01/khonoidungos/apps/cms_movitel/common/models/db/CsmMediaDB.php:137
    in /u01/khonoidungos/apps/cms_movitel/backend/models/CsmMediaCustomClipApproveSearch.php:86
2021-12-17 08:09:29 [192.168.146.32][13][-][error][i18n] @MISSING: backend.Convert End Time FOR LANGUAGE vi @
    in /u01/khonoidungos/apps/cms_movitel/common/helpers/TranslationEventHandler.php:17
    in /u01/khonoidungos/apps/cms_movitel/common/models/db/CsmMediaDB.php:138
    in /u01/khonoidungos/apps/cms_movitel/backend/models/CsmMediaCustomClipApproveSearch.php:86
2021-12-17 08:09:29 [192.168.146.32][13][-][error][i18n] @MISSING: backend.Convert Data ID FOR LANGUAGE vi @
    in /u01/khonoidungos/apps/cms_movitel/common/helpers/TranslationEventHandler.php:17
    in /u01/khonoidungos/apps/cms_movitel/common/models/db/CsmMediaDB.php:139
    in /u01/khonoidungos/apps/cms_movitel/backend/models/CsmMediaCustomClipApproveSearch.php:86
2021-12-17 08:09:29 [192.168.146.32][13][-][error][i18n] @MISSING: backend.Convert Images FOR LANGUAGE vi @
    in /u01/khonoidungos/apps/cms_movitel/common/helpers/TranslationEventHandler.php:17
    in /u01/khonoidungos/apps/cms_movitel/common/models/db/CsmMediaDB.php:140
    in /u01/khonoidungos/apps/cms_movitel/backend/models/CsmMediaCustomClipApproveSearch.php:86
2021-12-17 08:09:29 [192.168.146.32][13][-][error][i18n] @MISSING: backend.Meta Info FOR LANGUAGE vi @
    in /u01/khonoidungos/apps/cms_movitel/common/helpers/TranslationEventHandler.php:17
    in /u01/khonoidungos/apps/cms_movitel/common/models/db/CsmMediaDB.php:141
    in /u01/khonoidungos/apps/cms_movitel/backend/models/CsmMediaCustomClipApproveSearch.php:86
2021-12-17 08:09:29 [192.168.146.32][13][-][error][i18n] @MISSING: backend.Censored Info FOR LANGUAGE vi @
    in /u01/khonoidungos/apps/cms_movitel/common/helpers/TranslationEventHandler.php:17
    in /u01/khonoidungos/apps/cms_movitel/common/models/db/CsmMediaDB.php:142
    in /u01/khonoidungos/apps/cms_movitel/backend/models/CsmMediaCustomClipApproveSearch.php:86
2021-12-17 08:09:29 [192.168.146.32][13][-][error][i18n] @MISSING: backend.Logo Path FOR LANGUAGE vi @
    in /u01/khonoidungos/apps/cms_movitel/common/helpers/TranslationEventHandler.php:17
    in /u01/khonoidungos/apps/cms_movitel/common/models/db/CsmMediaDB.php:143
    in /u01/khonoidungos/apps/cms_movitel/backend/models/CsmMediaCustomClipApproveSearch.php:86
2021-12-17 08:09:29 [192.168.146.32][13][-][error][i18n] @MISSING: backend.Need Censored FOR LANGUAGE vi @
    in /u01/khonoidungos/apps/cms_movitel/common/helpers/TranslationEventHandler.php:17
    in /u01/khonoidungos/apps/cms_movitel/common/models/db/CsmMediaDB.php:144
    in /u01/khonoidungos/apps/cms_movitel/backend/models/CsmMediaCustomClipApproveSearch.php:86
2021-12-17 08:09:29 [192.168.146.32][13][-][error][i18n] @MISSING: backend.Crawler ID FOR LANGUAGE vi @
    in /u01/khonoidungos/apps/cms_movitel/common/helpers/TranslationEventHandler.php:17
    in /u01/khonoidungos/apps/cms_movitel/common/models/db/CsmMediaDB.php:149
    in /u01/khonoidungos/apps/cms_movitel/backend/models/CsmMediaCustomClipApproveSearch.php:86
2021-12-17 08:09:29 [192.168.146.32][13][-][error][i18n] @MISSING: backend.Updated By FOR LANGUAGE vi @
    in /u01/khonoidungos/apps/cms_movitel/common/helpers/TranslationEventHandler.php:17
    in /u01/khonoidungos/apps/cms_movitel/common/models/db/CsmMediaDB.php:152
    in /u01/khonoidungos/apps/cms_movitel/backend/models/CsmMediaCustomClipApproveSearch.php:86
2021-12-17 08:09:29 [192.168.146.32][13][-][error][i18n] @MISSING: backend.Reviewed By FOR LANGUAGE vi @
    in /u01/khonoidungos/apps/cms_movitel/common/helpers/TranslationEventHandler.php:17
    in /u01/khonoidungos/apps/cms_movitel/common/models/db/CsmMediaDB.php:153
    in /u01/khonoidungos/apps/cms_movitel/backend/models/CsmMediaCustomClipApproveSearch.php:86
2021-12-17 08:09:29 [192.168.146.32][13][-][error][i18n] @MISSING: backend.Need Encryption FOR LANGUAGE vi @
    in /u01/khonoidungos/apps/cms_movitel/common/helpers/TranslationEventHandler.php:17
    in /u01/khonoidungos/apps/cms_movitel/common/models/db/CsmMediaDB.php:156
    in /u01/khonoidungos/apps/cms_movitel/backend/models/CsmMediaCustomClipApproveSearch.php:86
2021-12-17 08:09:29 [192.168.146.32][13][-][error][i18n] @MISSING: backend.Resource ID FOR LANGUAGE vi @
    in /u01/khonoidungos/apps/cms_movitel/common/helpers/TranslationEventHandler.php:17
    in /u01/khonoidungos/apps/cms_movitel/common/models/db/CsmMediaDB.php:157
    in /u01/khonoidungos/apps/cms_movitel/backend/models/CsmMediaCustomClipApproveSearch.php:86
2021-12-17 08:09:29 [192.168.146.32][13][-][error][i18n] @MISSING: backend.Drm ID FOR LANGUAGE vi @
    in /u01/khonoidungos/apps/cms_movitel/common/helpers/TranslationEventHandler.php:17
    in /u01/khonoidungos/apps/cms_movitel/common/models/db/CsmMediaDB.php:158
    in /u01/khonoidungos/apps/cms_movitel/backend/models/CsmMediaCustomClipApproveSearch.php:86
2021-12-17 08:09:29 [192.168.146.32][13][-][error][i18n] @MISSING: backend.Convert Server FOR LANGUAGE vi @
    in /u01/khonoidungos/apps/cms_movitel/common/helpers/TranslationEventHandler.php:17
    in /u01/khonoidungos/apps/cms_movitel/common/models/db/CsmMediaDB.php:159
    in /u01/khonoidungos/apps/cms_movitel/backend/models/CsmMediaCustomClipApproveSearch.php:86
2021-12-17 08:09:29 [192.168.146.32][13][-][error][i18n] @MISSING: backend.Media Info FOR LANGUAGE vi @
    in /u01/khonoidungos/apps/cms_movitel/common/helpers/TranslationEventHandler.php:17
    in /u01/khonoidungos/apps/cms_movitel/common/models/db/CsmMediaDB.php:160
    in /u01/khonoidungos/apps/cms_movitel/backend/models/CsmMediaCustomClipApproveSearch.php:86
2021-12-17 08:09:29 [192.168.146.32][13][-][error][i18n] @MISSING: backend.Last Sync At FOR LANGUAGE vi @
    in /u01/khonoidungos/apps/cms_movitel/common/helpers/TranslationEventHandler.php:17
    in /u01/khonoidungos/apps/cms_movitel/common/models/db/CsmMediaDB.php:163
    in /u01/khonoidungos/apps/cms_movitel/backend/models/CsmMediaCustomClipApproveSearch.php:86
2021-12-17 08:09:29 [192.168.146.32][13][-][error][i18n] @MISSING: backend.Multi Language FOR LANGUAGE vi @
    in /u01/khonoidungos/apps/cms_movitel/common/helpers/TranslationEventHandler.php:17
    in /u01/khonoidungos/apps/cms_movitel/common/models/db/CsmMediaDB.php:164
    in /u01/khonoidungos/apps/cms_movitel/backend/models/CsmMediaCustomClipApproveSearch.php:86
2021-12-17 08:09:29 [192.168.146.32][13][-][error][i18n] @MISSING: backend.Audio Path FOR LANGUAGE vi @
    in /u01/khonoidungos/apps/cms_movitel/common/helpers/TranslationEventHandler.php:17
    in /u01/khonoidungos/apps/cms_movitel/common/models/db/CsmMediaDB.php:166
    in /u01/khonoidungos/apps/cms_movitel/backend/models/CsmMediaCustomClipApproveSearch.php:86
2021-12-17 08:09:29 [192.168.146.32][13][-][error][i18n] @MISSING: backend.Video Clip FOR LANGUAGE vi @
    in /u01/khonoidungos/apps/cms_movitel/common/helpers/TranslationEventHandler.php:17
    in /u01/khonoidungos/apps/cms_movitel/backend/views/csm-media-custom-clip-approve/index.php:20
    in /u01/khonoidungos/apps/cms_movitel/backend/controllers/CsmMediaCustomClipApproveController.php:53
2021-12-17 08:09:29 [192.168.146.32][13][-][error][i18n] @MISSING: backend.Từ chối duyệt FOR LANGUAGE vi @
    in /u01/khonoidungos/apps/cms_movitel/common/helpers/TranslationEventHandler.php:17
    in /u01/khonoidungos/apps/cms_movitel/backend/views/csm-media-custom-clip-approve/index.php:47
    in /u01/khonoidungos/apps/cms_movitel/backend/controllers/CsmMediaCustomClipApproveController.php:53
2021-12-17 08:09:29 [192.168.146.32][13][-][error][i18n] @MISSING: backend.Trạng thái file FOR LANGUAGE vi @
    in /u01/khonoidungos/apps/cms_movitel/common/helpers/TranslationEventHandler.php:17
    in /u01/khonoidungos/apps/cms_movitel/backend/views/csm-media-custom-clip-approve/index.php:113
    in /u01/khonoidungos/apps/cms_movitel/backend/controllers/CsmMediaCustomClipApproveController.php:53
2021-12-17 08:09:29 [192.168.146.32][13][-][error][i18n] @MISSING: backend.Ngày update FOR LANGUAGE vi @
    in /u01/khonoidungos/apps/cms_movitel/common/helpers/TranslationEventHandler.php:17
    in /u01/khonoidungos/apps/cms_movitel/backend/views/csm-media-custom-clip-approve/index.php:120
    in /u01/khonoidungos/apps/cms_movitel/backend/controllers/CsmMediaCustomClipApproveController.php:53
2021-12-17 08:09:29 [192.168.146.32][13][-][error][i18n] @MISSING: backend.Ngày tạo FOR LANGUAGE vi @
    in /u01/khonoidungos/apps/cms_movitel/common/helpers/TranslationEventHandler.php:17
    in /u01/khonoidungos/apps/cms_movitel/backend/views/csm-media-custom-clip-approve/index.php:141
    in /u01/khonoidungos/apps/cms_movitel/backend/controllers/CsmMediaCustomClipApproveController.php:53
2021-12-17 08:09:29 [192.168.146.32][13][-][error][i18n] @MISSING: backend.Chọn Category FOR LANGUAGE vi @
    in /u01/khonoidungos/apps/cms_movitel/common/helpers/TranslationEventHandler.php:17
    in /u01/khonoidungos/apps/cms_movitel/backend/views/csm-media-custom-clip-approve/index.php:186
    in /u01/khonoidungos/apps/cms_movitel/backend/controllers/CsmMediaCustomClipApproveController.php:53
