2021-11-18 11:01:57 [127.0.0.1][-][9bdncl4hs8dncjo72ub8qp65e1][error][yii\web\HttpException:404] yii\base\InvalidRouteException: Unable to resolve the request "uploads/media2/images/video-poster/57/f2/25/615ff1870c30d.jpg". in D:\Projects\VAS\movitel\cms_movitel\vendor\yiisoft\yii2\base\Module.php:543
Stack trace:
#0 D:\Projects\VAS\movitel\cms_movitel\vendor\yiisoft\yii2\web\Application.php(104): yii\base\Module->runAction('uploads/media2/...', Array)
#1 D:\Projects\VAS\movitel\cms_movitel\vendor\yiisoft\yii2\base\Application.php(392): yii\web\Application->handleRequest(Object(yii\web\Request))
#2 D:\Projects\VAS\movitel\cms_movitel\backend\web\index.php(23): yii\base\Application->run()
#3 {main}

Next yii\web\NotFoundHttpException: Không tìm thấy trang. in D:\Projects\VAS\movitel\cms_movitel\vendor\yiisoft\yii2\web\Application.php:116
Stack trace:
#0 D:\Projects\VAS\movitel\cms_movitel\vendor\yiisoft\yii2\base\Application.php(392): yii\web\Application->handleRequest(Object(yii\web\Request))
#1 D:\Projects\VAS\movitel\cms_movitel\backend\web\index.php(23): yii\base\Application->run()
#2 {main}
2021-11-18 11:01:57 [127.0.0.1][-][9bdncl4hs8dncjo72ub8qp65e1][info][application] $_GET = []

$_POST = []

$_FILES = []

$_COOKIE = []

$_SESSION = [
    '__flash' => []
]

$_SERVER = [
    'REDIRECT_MIBDIRS' => 'D:/xampp7.4/php/extras/mibs'
    'REDIRECT_MYSQL_HOME' => '\\xampp\\mysql\\bin'
    'REDIRECT_OPENSSL_CONF' => 'D:/xampp7.4/apache/bin/openssl.cnf'
    'REDIRECT_PHP_PEAR_SYSCONF_DIR' => '\\xampp\\php'
    'REDIRECT_PHPRC' => '\\xampp\\php'
    'REDIRECT_TMP' => '\\xampp\\tmp'
    'REDIRECT_STATUS' => '200'
    'MIBDIRS' => 'D:/xampp7.4/php/extras/mibs'
    'MYSQL_HOME' => '\\xampp\\mysql\\bin'
    'OPENSSL_CONF' => 'D:/xampp7.4/apache/bin/openssl.cnf'
    'PHP_PEAR_SYSCONF_DIR' => '\\xampp\\php'
    'PHPRC' => '\\xampp\\php'
    'TMP' => '\\xampp\\tmp'
    'HTTP_HOST' => '127.0.0.1:8080'
    'HTTP_CONNECTION' => 'keep-alive'
    'HTTP_SEC_CH_UA' => '\"Google Chrome\";v=\"95\", \"Chromium\";v=\"95\", \";Not A Brand\";v=\"99\"'
    'HTTP_SEC_CH_UA_MOBILE' => '?0'
    'HTTP_USER_AGENT' => 'Mozilla/5.0 (Windows NT 10.0; Win64; x64) AppleWebKit/537.36 (KHTML, like Gecko) Chrome/95.0.4638.69 Safari/537.36'
    'HTTP_SEC_CH_UA_PLATFORM' => '\"Windows\"'
    'HTTP_ACCEPT' => 'image/avif,image/webp,image/apng,image/svg+xml,image/*,*/*;q=0.8'
    'HTTP_SEC_FETCH_SITE' => 'cross-site'
    'HTTP_SEC_FETCH_MODE' => 'no-cors'
    'HTTP_SEC_FETCH_DEST' => 'image'
    'HTTP_REFERER' => 'http://localhost:8080/'
    'HTTP_ACCEPT_ENCODING' => 'gzip, deflate, br'
    'HTTP_ACCEPT_LANGUAGE' => 'en-US,en;q=0.9,vi;q=0.8'
    'PATH' => 'F:\\ProjectApp\\WINDOWS.X64_193000_db_home\\bin;C:\\Program Files\\Common Files\\Oracle\\Java\\javapath;C:\\Windows\\system32;C:\\Windows;C:\\Windows\\System32\\Wbem;C:\\Windows\\System32\\WindowsPowerShell\\v1.0\\;C:\\Windows\\System32\\OpenSSH\\;C:\\Program Files\\Git\\cmd;C:\\Program Files\\nodejs\\;C:\\Program Files\\VisualSVN Server\\bin;C:\\Program Files\\TortoiseSVN\\bin;F:\\Android\\Sdk\\platform-tools;D:\\xampp7.4\\php;C:\\ProgramData\\ComposerSetup\\bin;C:\\Program Files\\Docker\\Docker\\resources\\bin;C:\\ProgramData\\DockerDesktop\\version-bin;C:\\Users\\admin\\AppData\\Local\\Programs\\Python\\Python39\\Scripts\\;C:\\Users\\admin\\AppData\\Local\\Programs\\Python\\Python39\\;C:\\Users\\admin\\AppData\\Local\\Microsoft\\WindowsApps;C:\\Users\\admin\\AppData\\Roaming\\npm;C:\\Users\\admin\\AppData\\Local\\Programs\\Microsoft VS Code\\bin;C:\\Program Files\\Java\\jdk-16.0.1\\bin;C:\\Users\\admin\\AppData\\Roaming\\Composer\\vendor\\bin'
    'SystemRoot' => 'C:\\Windows'
    'COMSPEC' => 'C:\\Windows\\system32\\cmd.exe'
    'PATHEXT' => '.COM;.EXE;.BAT;.CMD;.VBS;.VBE;.JS;.JSE;.WSF;.WSH;.MSC'
    'WINDIR' => 'C:\\Windows'
    'SERVER_SIGNATURE' => '<address>Apache/2.4.48 (Win64) OpenSSL/1.1.1l PHP/7.4.23 Server at 127.0.0.1 Port 8080</address>
'
    'SERVER_SOFTWARE' => 'Apache/2.4.48 (Win64) OpenSSL/1.1.1l PHP/7.4.23'
    'SERVER_NAME' => '127.0.0.1'
    'SERVER_ADDR' => '127.0.0.1'
    'SERVER_PORT